\relax 
\providecommand\hyper@newdestlabel[2]{}
\providecommand\HyperFirstAtBeginDocument{\AtBeginDocument}
\HyperFirstAtBeginDocument{\ifx\hyper@anchor\@undefined
\global\let\oldcontentsline\contentsline
\gdef\contentsline#1#2#3#4{\oldcontentsline{#1}{#2}{#3}}
\global\let\oldnewlabel\newlabel
\gdef\newlabel#1#2{\newlabelxx{#1}#2}
\gdef\newlabelxx#1#2#3#4#5#6{\oldnewlabel{#1}{{#2}{#3}}}
\AtEndDocument{\ifx\hyper@anchor\@undefined
\let\contentsline\oldcontentsline
\let\newlabel\oldnewlabel
\fi}
\fi}
\global\let\hyper@last\relax 
\gdef\HyperFirstAtBeginDocument#1{#1}
\providecommand*\HyPL@Entry[1]{}
\HyPL@Entry{0<</S/r>>}
\HyPL@Entry{16<</S/D>>}
\@writefile{toc}{\contentsline {chapter}{\numberline {1}Basic Concepts}{1}{chapter.1}\protected@file@percent }
\@writefile{lof}{\addvspace {10\p@ }}
\@writefile{lot}{\addvspace {10\p@ }}
\newlabel{ch-basic-concepts}{{1}{1}{Basic Concepts}{chapter.1}{}}
\@writefile{toc}{\contentsline {section}{The Centimetre and the Second}{1}{section*.3}\protected@file@percent }
\newlabel{longer-day}{{1}{8}{The Centimetre and the Second}{section*.3}{}}
\@writefile{toc}{\contentsline {section}{Weight and Mass}{8}{section*.4}\protected@file@percent }
\@writefile{lof}{\contentsline {figure}{\numberline {1.1}{\ignorespaces Using springs for measuring weights.\relax }}{9}{figure.caption.5}\protected@file@percent }
\providecommand*\caption@xref[2]{\@setref\relax\@undefined{#1}}
\newlabel{fig-1.1}{{1.1}{9}{Using springs for measuring weights.\relax }{figure.caption.5}{}}
\@writefile{lof}{\contentsline {figure}{\numberline {1.2}{\ignorespaces A dynamometer is used to measure forces.\relax }}{10}{figure.caption.6}\protected@file@percent }
\newlabel{fig-1.2}{{1.2}{10}{A dynamometer is used to measure forces.\relax }{figure.caption.6}{}}
\@writefile{lof}{\contentsline {figure}{\numberline {1.3}{\ignorespaces Measuring the mass with help of balance scales.\relax }}{12}{figure.caption.7}\protected@file@percent }
\newlabel{fig-1.3}{{1.3}{12}{Measuring the mass with help of balance scales.\relax }{figure.caption.7}{}}
\@writefile{toc}{\contentsline {section}{The SI System and Standards of Measurement}{14}{section*.8}\protected@file@percent }
\newlabel{sec-def}{{1}{17}{The SI System and Standards of Measurement}{section*.8}{}}
\@writefile{toc}{\contentsline {section}{Density}{19}{section*.9}\protected@file@percent }
\@writefile{toc}{\contentsline {section}{The Law of Conservation of Mass}{23}{section*.10}\protected@file@percent }
\@writefile{toc}{\contentsline {section}{Action and Reaction}{25}{section*.11}\protected@file@percent }
\@writefile{toc}{\contentsline {section}{How Velocities Are Added}{28}{section*.12}\protected@file@percent }
\@writefile{lof}{\contentsline {figure}{\numberline {1.4}{\ignorespaces Distances are not added artihmetically.\relax }}{29}{figure.caption.13}\protected@file@percent }
\newlabel{fig-1.4}{{1.4}{29}{Distances are not added artihmetically.\relax }{figure.caption.13}{}}
\@writefile{lof}{\contentsline {figure}{\numberline {1.5}{\ignorespaces Adding vectors geometrically.\relax }}{32}{figure.caption.14}\protected@file@percent }
\newlabel{fig-1.5}{{1.5}{32}{Adding vectors geometrically.\relax }{figure.caption.14}{}}
\@writefile{lof}{\contentsline {figure}{\numberline {1.6}{\ignorespaces Why does the rain seem slanting from a moving train?\relax }}{33}{figure.caption.15}\protected@file@percent }
\newlabel{fig-1.6}{{1.6}{33}{Why does the rain seem slanting from a moving train?\relax }{figure.caption.15}{}}
\@writefile{toc}{\contentsline {section}{Force Is a Vector}{34}{section*.16}\protected@file@percent }
\@writefile{lof}{\contentsline {figure}{\numberline {1.7}{\ignorespaces Vector addition of forces.\relax }}{35}{figure.caption.17}\protected@file@percent }
\newlabel{fig-1.7}{{1.7}{35}{Vector addition of forces.\relax }{figure.caption.17}{}}
\@writefile{lof}{\contentsline {figure}{\numberline {1.8}{\ignorespaces Determining the tension in the ropes.\relax }}{36}{figure.caption.18}\protected@file@percent }
\newlabel{fig-1.8}{{1.8}{36}{Determining the tension in the ropes.\relax }{figure.caption.18}{}}
\@writefile{lof}{\contentsline {figure}{\numberline {1.9}{\ignorespaces Determining the tension in the ropes.\relax }}{37}{figure.caption.19}\protected@file@percent }
\newlabel{fig-1.9}{{1.9}{37}{Determining the tension in the ropes.\relax }{figure.caption.19}{}}
\@writefile{lof}{\contentsline {figure}{\numberline {1.10}{\ignorespaces Analysing the motion of a sailboat.\relax }}{39}{figure.caption.20}\protected@file@percent }
\newlabel{fig-1.10}{{1.10}{39}{Analysing the motion of a sailboat.\relax }{figure.caption.20}{}}
\@writefile{toc}{\contentsline {section}{Inclined Plane}{40}{section*.21}\protected@file@percent }
\@writefile{lof}{\contentsline {figure}{\numberline {1.11}{\ignorespaces Analysing motion on an inclined plane.\relax }}{41}{figure.caption.22}\protected@file@percent }
\newlabel{fig-1.11}{{1.11}{41}{Analysing motion on an inclined plane.\relax }{figure.caption.22}{}}
\@writefile{toc}{\contentsline {chapter}{\numberline {2}Laws of Motion}{45}{chapter.2}\protected@file@percent }
\@writefile{lof}{\addvspace {10\p@ }}
\@writefile{lot}{\addvspace {10\p@ }}
\newlabel{02-motion}{{2}{45}{Laws of Motion}{chapter.2}{}}
\@writefile{toc}{\contentsline {section}{Various Points of View About Motion}{45}{section*.23}\protected@file@percent }
\@writefile{toc}{\contentsline {section}{The Law of Inertia}{48}{section*.24}\protected@file@percent }
\@writefile{toc}{\contentsline {section}{Motion Is Relative}{53}{section*.25}\protected@file@percent }
\@writefile{toc}{\contentsline {section}{The Point of View of a Celestial Observer}{56}{section*.26}\protected@file@percent }
\@writefile{lof}{\contentsline {figure}{\numberline {2.1}{\ignorespaces The Foucault's pendulum.\relax }}{60}{figure.caption.27}\protected@file@percent }
\newlabel{fig-2.01}{{2.1}{60}{The Foucault's pendulum.\relax }{figure.caption.27}{}}
\@writefile{toc}{\contentsline {section}{Acceleration and Force}{61}{section*.28}\protected@file@percent }
\@writefile{lof}{\contentsline {figure}{\numberline {2.2}{\ignorespaces Analysing motion of a car turning on a highway.\relax }}{63}{figure.caption.29}\protected@file@percent }
\newlabel{fig-2.02}{{2.2}{63}{Analysing motion of a car turning on a highway.\relax }{figure.caption.29}{}}
\@writefile{toc}{\contentsline {section}{Rectilinear Motion with Constant Acceleration}{73}{section*.30}\protected@file@percent }
\newlabel{dist-time-acc}{{2}{76}{Rectilinear Motion with Constant Acceleration}{section*.30}{}}
\@writefile{toc}{\contentsline {section}{Path of a Bullet}{78}{section*.31}\protected@file@percent }
\@writefile{lof}{\contentsline {figure}{\numberline {2.3}{\ignorespaces Analysing motion of a shot from a rifle.\relax }}{79}{figure.caption.32}\protected@file@percent }
\newlabel{fig-2.03}{{2.3}{79}{Analysing motion of a shot from a rifle.\relax }{figure.caption.32}{}}
\@writefile{lof}{\contentsline {figure}{\numberline {2.4}{\ignorespaces Analysing a projectile trajectory.\relax }}{80}{figure.caption.33}\protected@file@percent }
\newlabel{fig-2.04}{{2.4}{80}{Analysing a projectile trajectory.\relax }{figure.caption.33}{}}
\@writefile{toc}{\contentsline {section}{Circular Motion}{83}{section*.34}\protected@file@percent }
\@writefile{lof}{\contentsline {figure}{\numberline {2.5}{\ignorespaces Changes in velocity during a revolution of a body.\relax }}{84}{figure.caption.35}\protected@file@percent }
\newlabel{fig-2.05}{{2.5}{84}{Changes in velocity during a revolution of a body.\relax }{figure.caption.35}{}}
\@writefile{lof}{\contentsline {figure}{\numberline {2.6}{\ignorespaces Relationship between acceleration and velocity in circular motion.\relax }}{85}{figure.caption.36}\protected@file@percent }
\newlabel{fig-2.06}{{2.6}{85}{Relationship between acceleration and velocity in circular motion.\relax }{figure.caption.36}{}}
\newlabel{cp}{{2}{86}{Circular Motion}{figure.caption.36}{}}
\@writefile{toc}{\contentsline {section}{Life at $g$ Zero}{88}{section*.37}\protected@file@percent }
\newlabel{eqpr}{{2}{91}{Life at $g$ Zero}{section*.37}{}}
\@writefile{lof}{\contentsline {figure}{\numberline {2.7}{\ignorespaces The equivalence principle.\relax }}{92}{figure.caption.38}\protected@file@percent }
\newlabel{fig-2.07}{{2.7}{92}{The equivalence principle.\relax }{figure.caption.38}{}}
\@writefile{toc}{\contentsline {section}{Motion from an ``Unreasonable'' Point of View}{96}{section*.39}\protected@file@percent }
\@writefile{lof}{\contentsline {figure}{\numberline {2.8}{\ignorespaces The changing ``vertical''.\relax }}{98}{figure.caption.40}\protected@file@percent }
\newlabel{fig-2.08}{{2.8}{98}{The changing ``vertical''.\relax }{figure.caption.40}{}}
\@writefile{lof}{\contentsline {figure}{\numberline {2.9}{\ignorespaces To every rotational velocity there corresponds a distinct paraboloid.\relax }}{101}{figure.caption.41}\protected@file@percent }
\newlabel{fig-2.09}{{2.9}{101}{To every rotational velocity there corresponds a distinct paraboloid.\relax }{figure.caption.41}{}}
\@writefile{lof}{\contentsline {figure}{\numberline {2.10}{\ignorespaces To every rotational velocity, there corresponds a distinct paraboloid.\relax }}{102}{figure.caption.42}\protected@file@percent }
\newlabel{fig-2.10}{{2.10}{102}{To every rotational velocity, there corresponds a distinct paraboloid.\relax }{figure.caption.42}{}}
\@writefile{toc}{\contentsline {section}{Centrifugal Forces}{103}{section*.43}\protected@file@percent }
\newlabel{centrifugal}{{2}{103}{Centrifugal Forces}{section*.43}{}}
\@writefile{lof}{\contentsline {figure}{\numberline {2.11}{\ignorespaces A wheel of laughs. Farther a person is from the centre, more difficult it is to stay put.\relax }}{106}{figure.caption.44}\protected@file@percent }
\newlabel{fig-2.11}{{2.11}{106}{A wheel of laughs. Farther a person is from the centre, more difficult it is to stay put.\relax }{figure.caption.44}{}}
\@writefile{lof}{\contentsline {figure}{\numberline {2.12}{\ignorespaces To every rotational velocity there corresponds a distinct paraboloid.\relax }}{107}{figure.caption.45}\protected@file@percent }
\newlabel{fig-2.12}{{2.12}{107}{To every rotational velocity there corresponds a distinct paraboloid.\relax }{figure.caption.45}{}}
\@writefile{lof}{\contentsline {figure}{\numberline {2.13}{\ignorespaces A centrifugal governor.\relax }}{111}{figure.caption.46}\protected@file@percent }
\newlabel{fig-2.13}{{2.13}{111}{A centrifugal governor.\relax }{figure.caption.46}{}}
\@writefile{toc}{\contentsline {section}{Coriolis Forces}{113}{section*.47}\protected@file@percent }
\@writefile{lof}{\contentsline {figure}{\numberline {2.14}{\ignorespaces A view from a rotating laboratory.\relax }}{114}{figure.caption.48}\protected@file@percent }
\newlabel{fig-2.14}{{2.14}{114}{A view from a rotating laboratory.\relax }{figure.caption.48}{}}
\@writefile{lof}{\contentsline {figure}{\numberline {2.15}{\ignorespaces The Foucault's pendulum.\relax }}{120}{figure.caption.49}\protected@file@percent }
\newlabel{fig-2.15}{{2.15}{120}{The Foucault's pendulum.\relax }{figure.caption.49}{}}
\@writefile{lof}{\contentsline {figure}{\numberline {2.16}{\ignorespaces The Coriolis effect.\relax }}{122}{figure.caption.50}\protected@file@percent }
\newlabel{fig-2.16}{{2.16}{122}{The Coriolis effect.\relax }{figure.caption.50}{}}
\@writefile{lof}{\contentsline {figure}{\numberline {2.17}{\ignorespaces The trade winds.\relax }}{124}{figure.caption.51}\protected@file@percent }
\newlabel{fig-2.17}{{2.17}{124}{The trade winds.\relax }{figure.caption.51}{}}
\@writefile{toc}{\contentsline {chapter}{\numberline {3} Conservation Laws}{127}{chapter.3}\protected@file@percent }
\@writefile{lof}{\addvspace {10\p@ }}
\@writefile{lot}{\addvspace {10\p@ }}
\@writefile{toc}{\contentsline {section}{Recoil}{127}{section*.52}\protected@file@percent }
\@writefile{lof}{\contentsline {figure}{\numberline {3.1}{\ignorespaces The action and reaction.\relax }}{128}{figure.caption.53}\protected@file@percent }
\newlabel{fig-3.01}{{3.1}{128}{The action and reaction.\relax }{figure.caption.53}{}}
\@writefile{toc}{\contentsline {section}{The Law of Conservation of Momentum}{130}{section*.54}\protected@file@percent }
\@writefile{lof}{\contentsline {figure}{\numberline {3.2}{\ignorespaces The law of conservation of momentum.\relax }}{134}{figure.caption.55}\protected@file@percent }
\newlabel{fig-3.02}{{3.2}{134}{The law of conservation of momentum.\relax }{figure.caption.55}{}}
\@writefile{toc}{\contentsline {section}{Jet Propulsion}{135}{section*.56}\protected@file@percent }
\@writefile{lof}{\contentsline {figure}{\numberline {3.3}{\ignorespaces An ancient steam turbine.\relax }}{136}{figure.caption.57}\protected@file@percent }
\newlabel{fig-3.03}{{3.3}{136}{An ancient steam turbine.\relax }{figure.caption.57}{}}
\newlabel{rocket-eq}{{3}{139}{Jet Propulsion}{figure.caption.57}{}}
\@writefile{toc}{\contentsline {section}{Motion Under the Action of Gravity}{140}{section*.58}\protected@file@percent }
\@writefile{lof}{\contentsline {figure}{\numberline {3.4}{\ignorespaces Analysing motion of a cart rolling down.\relax }}{141}{figure.caption.59}\protected@file@percent }
\newlabel{fig-3.04}{{3.4}{141}{Analysing motion of a cart rolling down.\relax }{figure.caption.59}{}}
\@writefile{lof}{\contentsline {figure}{\numberline {3.5}{\ignorespaces Analysing motion of an object sliding down a dome.\relax }}{147}{figure.caption.60}\protected@file@percent }
\newlabel{fig-3.05}{{3.5}{147}{Analysing motion of an object sliding down a dome.\relax }{figure.caption.60}{}}
\@writefile{toc}{\contentsline {section}{The Law of Conservation of Mechanical Energy}{148}{section*.61}\protected@file@percent }
\@writefile{toc}{\contentsline {section}{Work}{153}{section*.62}\protected@file@percent }
\@writefile{lof}{\contentsline {figure}{\numberline {3.6}{\ignorespaces Work done to push a cary on rails.\relax }}{154}{figure.caption.63}\protected@file@percent }
\newlabel{fig-3.06}{{3.6}{154}{Work done to push a cary on rails.\relax }{figure.caption.63}{}}
\@writefile{toc}{\contentsline {section}{In What Units Work and Energy Are Measured}{157}{section*.64}\protected@file@percent }
\@writefile{toc}{\contentsline {section}{Power and Efficiency of Machines}{159}{section*.65}\protected@file@percent }
\@writefile{toc}{\contentsline {section}{Energy Loss}{162}{section*.66}\protected@file@percent }
\@writefile{toc}{\contentsline {section}{Perpetuum Mobile}{164}{section*.67}\protected@file@percent }
\@writefile{lof}{\contentsline {figure}{\numberline {3.7}{\ignorespaces An example of perpetual motion machine.\relax }}{165}{figure.caption.68}\protected@file@percent }
\newlabel{fig-3.07}{{3.7}{165}{An example of perpetual motion machine.\relax }{figure.caption.68}{}}
\@writefile{lof}{\contentsline {figure}{\numberline {3.8}{\ignorespaces An example of perpetual motion machine.\relax }}{166}{figure.caption.69}\protected@file@percent }
\newlabel{fig-3.08}{{3.8}{166}{An example of perpetual motion machine.\relax }{figure.caption.69}{}}
\@writefile{lof}{\contentsline {figure}{\numberline {3.9}{\ignorespaces An example of perpetual motion machine.\relax }}{167}{figure.caption.70}\protected@file@percent }
\newlabel{fig-3.09}{{3.9}{167}{An example of perpetual motion machine.\relax }{figure.caption.70}{}}
\@writefile{lof}{\contentsline {figure}{\numberline {3.10}{\ignorespaces An example of perpetual motion machine.\relax }}{168}{figure.caption.71}\protected@file@percent }
\newlabel{fig-3.10}{{3.10}{168}{An example of perpetual motion machine.\relax }{figure.caption.71}{}}
\@writefile{toc}{\contentsline {section}{Collisions}{169}{section*.72}\protected@file@percent }
\@writefile{lof}{\contentsline {figure}{\numberline {3.11}{\ignorespaces Oblique collision between bodies of equal mass.\relax }}{172}{figure.caption.73}\protected@file@percent }
\newlabel{fig-3.11}{{3.11}{172}{Oblique collision between bodies of equal mass.\relax }{figure.caption.73}{}}
\@writefile{toc}{\contentsline {chapter}{\numberline {4}Oscillations}{175}{chapter.4}\protected@file@percent }
\@writefile{lof}{\addvspace {10\p@ }}
\@writefile{lot}{\addvspace {10\p@ }}
\@writefile{toc}{\contentsline {section}{Equilibrium}{175}{section*.74}\protected@file@percent }
\@writefile{lof}{\contentsline {figure}{\numberline {4.1}{\ignorespaces A ball on a cardboard hill.\relax }}{176}{figure.caption.75}\protected@file@percent }
\newlabel{fig-4.01}{{4.1}{176}{A ball on a cardboard hill.\relax }{figure.caption.75}{}}
\@writefile{toc}{\contentsline {section}{Simple Oscillations}{178}{section*.76}\protected@file@percent }
\@writefile{lof}{\contentsline {figure}{\numberline {4.2}{\ignorespaces Analysing the motion of a ``conical pendulum''.\relax }}{181}{figure.caption.77}\protected@file@percent }
\newlabel{fig-4.02}{{4.2}{181}{Analysing the motion of a ``conical pendulum''.\relax }{figure.caption.77}{}}
\@writefile{toc}{\contentsline {section}{Displaying Oscillations}{185}{section*.78}\protected@file@percent }
\@writefile{lof}{\contentsline {figure}{\numberline {4.3}{\ignorespaces Tracing the trajectory of the pendulum.\relax }}{185}{figure.caption.79}\protected@file@percent }
\newlabel{fig-4.03}{{4.3}{185}{Tracing the trajectory of the pendulum.\relax }{figure.caption.79}{}}
\@writefile{lof}{\contentsline {figure}{\numberline {4.4}{\ignorespaces Analysing the motion of a shadow cast on a wall by a bob moving around a circle.\relax }}{189}{figure.caption.80}\protected@file@percent }
\newlabel{fig-4.04}{{4.4}{189}{Analysing the motion of a shadow cast on a wall by a bob moving around a circle.\relax }{figure.caption.80}{}}
\@writefile{toc}{\contentsline {section}{Force and Potential Energy in Oscillations}{191}{section*.81}\protected@file@percent }
\@writefile{lof}{\contentsline {figure}{\numberline {4.5}{\ignorespaces Analysing restoring force for a pendulum.\relax }}{193}{figure.caption.82}\protected@file@percent }
\newlabel{fig-4.05}{{4.5}{193}{Analysing restoring force for a pendulum.\relax }{figure.caption.82}{}}
\newlabel{pend-osc}{{4}{194}{Force and Potential Energy in Oscillations}{figure.caption.82}{}}
\@writefile{toc}{\contentsline {section}{Spring Vibrations}{196}{section*.83}\protected@file@percent }
\@writefile{lof}{\contentsline {figure}{\numberline {4.6}{\ignorespaces The action and reaction.\relax }}{197}{figure.caption.84}\protected@file@percent }
\newlabel{fig-4.06}{{4.6}{197}{The action and reaction.\relax }{figure.caption.84}{}}
\@writefile{toc}{\contentsline {section}{More Complex Oscillations}{201}{section*.85}\protected@file@percent }
\@writefile{lof}{\contentsline {figure}{\numberline {4.7}{\ignorespaces A graph of a damped oscillation.\relax }}{202}{figure.caption.86}\protected@file@percent }
\newlabel{fig-4.07}{{4.7}{202}{A graph of a damped oscillation.\relax }{figure.caption.86}{}}
\@writefile{toc}{\contentsline {section}{Resonance}{202}{section*.87}\protected@file@percent }
\@writefile{lof}{\contentsline {figure}{\numberline {4.8}{\ignorespaces An apparatus for demonstrating resonance.\relax }}{204}{figure.caption.88}\protected@file@percent }
\newlabel{fig-4.08}{{4.8}{204}{An apparatus for demonstrating resonance.\relax }{figure.caption.88}{}}
\@writefile{toc}{\contentsline {chapter}{\numberline {5}Motion of Solid Bodies}{207}{chapter.5}\protected@file@percent }
\@writefile{lof}{\addvspace {10\p@ }}
\@writefile{lot}{\addvspace {10\p@ }}
\@writefile{toc}{\contentsline {section}{Torque}{207}{section*.89}\protected@file@percent }
\@writefile{lof}{\contentsline {figure}{\numberline {5.1}{\ignorespaces Finding the work done in rotation.\relax }}{209}{figure.caption.90}\protected@file@percent }
\newlabel{fig-5-01}{{5.1}{209}{Finding the work done in rotation.\relax }{figure.caption.90}{}}
\@writefile{lof}{\contentsline {figure}{\numberline {5.2}{\ignorespaces Finding formula for torque.\relax }}{210}{figure.caption.91}\protected@file@percent }
\newlabel{fig-5-02}{{5.2}{210}{Finding formula for torque.\relax }{figure.caption.91}{}}
\@writefile{toc}{\contentsline {section}{Lever}{213}{section*.92}\protected@file@percent }
\@writefile{lof}{\contentsline {figure}{\numberline {5.3}{\ignorespaces Scissors, nutcracker and plier are all examples of lever.\relax }}{216}{figure.caption.93}\protected@file@percent }
\newlabel{fig-5-03}{{5.3}{216}{Scissors, nutcracker and plier are all examples of lever.\relax }{figure.caption.93}{}}
\@writefile{lof}{\contentsline {figure}{\numberline {5.4}{\ignorespaces Drawing out water with help of lever, the windlass.\relax }}{217}{figure.caption.94}\protected@file@percent }
\newlabel{fig-5-04}{{5.4}{217}{Drawing out water with help of lever, the windlass.\relax }{figure.caption.94}{}}
\@writefile{toc}{\contentsline {section}{Loss in Path}{217}{section*.95}\protected@file@percent }
\@writefile{toc}{\contentsline {section}{Other Very Simple Machines}{223}{section*.96}\protected@file@percent }
\@writefile{lof}{\contentsline {figure}{\numberline {5.5}{\ignorespaces Lifting a heavy weight using a tackle.\relax }}{224}{figure.caption.97}\protected@file@percent }
\newlabel{fig-5-05}{{5.5}{224}{Lifting a heavy weight using a tackle.\relax }{figure.caption.97}{}}
\@writefile{toc}{\contentsline {section}{Adding Parallel Forces Acting on a Solid Body}{225}{section*.98}\protected@file@percent }
\@writefile{lof}{\contentsline {figure}{\numberline {5.6}{\ignorespaces Finding the point of application of the resultant of two parallel forces acting on a body.\relax }}{227}{figure.caption.99}\protected@file@percent }
\newlabel{fig-5-06}{{5.6}{227}{Finding the point of application of the resultant of two parallel forces acting on a body.\relax }{figure.caption.99}{}}
\@writefile{lof}{\contentsline {figure}{\numberline {5.7}{\ignorespaces Finding resultant of two anti-parallel forces acting on a body.\relax }}{229}{figure.caption.100}\protected@file@percent }
\newlabel{fig-5-07}{{5.7}{229}{Finding resultant of two anti-parallel forces acting on a body.\relax }{figure.caption.100}{}}
\@writefile{lof}{\contentsline {figure}{\numberline {5.8}{\ignorespaces Stronger person should hold the pole nearer to the load.\relax }}{230}{figure.caption.101}\protected@file@percent }
\newlabel{fig-5-08}{{5.8}{230}{Stronger person should hold the pole nearer to the load.\relax }{figure.caption.101}{}}
\@writefile{toc}{\contentsline {section}{Centre of Gravity}{231}{section*.102}\protected@file@percent }
\@writefile{lof}{\contentsline {figure}{\numberline {5.9}{\ignorespaces Making a pin stand vertically and stably on a table.\relax }}{235}{figure.caption.103}\protected@file@percent }
\newlabel{fig-5-09}{{5.9}{235}{Making a pin stand vertically and stably on a table.\relax }{figure.caption.103}{}}
\@writefile{lof}{\contentsline {figure}{\numberline {5.10}{\ignorespaces Which vase will tip?\relax }}{236}{figure.caption.104}\protected@file@percent }
\newlabel{fig-5-10}{{5.10}{236}{Which vase will tip?\relax }{figure.caption.104}{}}
\@writefile{lof}{\contentsline {figure}{\numberline {5.11}{\ignorespaces Area of support needed for equilibrium need not be equal to area of actual support.\relax }}{237}{figure.caption.105}\protected@file@percent }
\newlabel{fig-5-11}{{5.11}{237}{Area of support needed for equilibrium need not be equal to area of actual support.\relax }{figure.caption.105}{}}
\@writefile{lof}{\contentsline {figure}{\numberline {5.12}{\ignorespaces Finding area of support for a tripod.\relax }}{237}{figure.caption.106}\protected@file@percent }
\newlabel{fig-5-12}{{5.12}{237}{Finding area of support for a tripod.\relax }{figure.caption.106}{}}
\@writefile{toc}{\contentsline {section}{Centre of Mass}{238}{section*.107}\protected@file@percent }
\newlabel{ellipse}{{5}{239}{Centre of Mass}{section*.107}{}}
\@writefile{toc}{\contentsline {section}{Angular Momentum}{242}{section*.108}\protected@file@percent }
\@writefile{lof}{\contentsline {figure}{\numberline {5.13}{\ignorespaces Finding the angular momentum of a body.\relax }}{243}{figure.caption.109}\protected@file@percent }
\newlabel{fig-5-13}{{5.13}{243}{Finding the angular momentum of a body.\relax }{figure.caption.109}{}}
\@writefile{toc}{\contentsline {section}{Law of Conservation of Angular Momentum}{244}{section*.110}\protected@file@percent }
\@writefile{toc}{\contentsline {section}{Angular Momentum as a Vector}{247}{section*.111}\protected@file@percent }
\@writefile{lof}{\contentsline {figure}{\numberline {5.14}{\ignorespaces Angular momentum as a vector.\relax }}{248}{figure.caption.112}\protected@file@percent }
\newlabel{fig-5-14}{{5.14}{248}{Angular momentum as a vector.\relax }{figure.caption.112}{}}
\@writefile{toc}{\contentsline {section}{Tops}{251}{section*.113}\protected@file@percent }
\@writefile{lof}{\contentsline {figure}{\numberline {5.15}{\ignorespaces A Cardan suspension (a gyroscope).\relax }}{253}{figure.caption.114}\protected@file@percent }
\newlabel{fig-5-15}{{5.15}{253}{A Cardan suspension (a gyroscope).\relax }{figure.caption.114}{}}
\@writefile{toc}{\contentsline {section}{Flexible Shaft}{254}{section*.115}\protected@file@percent }
\@writefile{toc}{\contentsline {chapter}{\numberline {6}Gravitation}{261}{chapter.6}\protected@file@percent }
\@writefile{lof}{\addvspace {10\p@ }}
\@writefile{lot}{\addvspace {10\p@ }}
\@writefile{toc}{\contentsline {section}{What Holds the Earth Up!}{261}{section*.116}\protected@file@percent }
\@writefile{toc}{\contentsline {section}{Law of Universal Gravitation}{264}{section*.117}\protected@file@percent }
\@writefile{lof}{\contentsline {figure}{\numberline {6.1}{\ignorespaces An experiment to determine universal constant of gravitation.\relax }}{267}{figure.caption.118}\protected@file@percent }
\newlabel{fig-6-1}{{6.1}{267}{An experiment to determine universal constant of gravitation.\relax }{figure.caption.118}{}}
\@writefile{toc}{\contentsline {section}{Weighing the Earth}{268}{section*.119}\protected@file@percent }
\@writefile{toc}{\contentsline {section}{Measuring $g$ in the Service of Prospecting}{271}{section*.120}\protected@file@percent }
\@writefile{lof}{\contentsline {figure}{\numberline {6.2}{\ignorespaces An extremely sensitive geological balance with a quartz thread.\relax }}{272}{figure.caption.121}\protected@file@percent }
\newlabel{fig-6-2}{{6.2}{272}{An extremely sensitive geological balance with a quartz thread.\relax }{figure.caption.121}{}}
\@writefile{lof}{\contentsline {figure}{\numberline {6.3}{\ignorespaces Plumb line deflections from the normal vertical.\relax }}{276}{figure.caption.122}\protected@file@percent }
\newlabel{fig-6-3}{{6.3}{276}{Plumb line deflections from the normal vertical.\relax }{figure.caption.122}{}}
\@writefile{toc}{\contentsline {section}{Weight Underground}{278}{section*.123}\protected@file@percent }
\@writefile{lof}{\contentsline {figure}{\numberline {6.4}{\ignorespaces Analysing gravitational forces on a point inside the surface of the Earth.\relax }}{279}{figure.caption.124}\protected@file@percent }
\newlabel{fig-6-4}{{6.4}{279}{Analysing gravitational forces on a point inside the surface of the Earth.\relax }{figure.caption.124}{}}
\@writefile{toc}{\contentsline {section}{Gravitational Energy}{282}{section*.125}\protected@file@percent }
\@writefile{toc}{\contentsline {section}{How Planets Move}{289}{section*.126}\protected@file@percent }
\@writefile{lof}{\contentsline {figure}{\numberline {6.5}{\ignorespaces Drawing an ellipse.\relax }}{292}{figure.caption.127}\protected@file@percent }
\newlabel{fig-6-5}{{6.5}{292}{Drawing an ellipse.\relax }{figure.caption.127}{}}
\@writefile{lof}{\contentsline {figure}{\numberline {6.6}{\ignorespaces Orbits of planets are almost circles.\relax }}{293}{figure.caption.128}\protected@file@percent }
\newlabel{fig-6-6}{{6.6}{293}{Orbits of planets are almost circles.\relax }{figure.caption.128}{}}
\@writefile{lof}{\contentsline {figure}{\numberline {6.7}{\ignorespaces Planets sweep equal areas on equal amount of time.\relax }}{295}{figure.caption.129}\protected@file@percent }
\newlabel{fig-6-7}{{6.7}{295}{Planets sweep equal areas on equal amount of time.\relax }{figure.caption.129}{}}
\@writefile{lof}{\contentsline {figure}{\numberline {6.8}{\ignorespaces Double stars revolve around their common centre of mass.\relax }}{296}{figure.caption.130}\protected@file@percent }
\newlabel{fig-6-8}{{6.8}{296}{Double stars revolve around their common centre of mass.\relax }{figure.caption.130}{}}
\@writefile{toc}{\contentsline {section}{Interplanetary Travel}{298}{section*.131}\protected@file@percent }
\@writefile{lof}{\contentsline {figure}{\numberline {6.9}{\ignorespaces Trajectory of a rocket launched to the Moon.\relax }}{300}{figure.caption.132}\protected@file@percent }
\newlabel{fig-6-9}{{6.9}{300}{Trajectory of a rocket launched to the Moon.\relax }{figure.caption.132}{}}
\@writefile{toc}{\contentsline {section}{If There Were No Moon}{303}{section*.133}\protected@file@percent }
\@writefile{lof}{\contentsline {figure}{\numberline {6.10}{\ignorespaces Acceleration of Earth with respect to the Moon.\relax }}{304}{figure.caption.134}\protected@file@percent }
\newlabel{fig-6-10}{{6.10}{304}{Acceleration of Earth with respect to the Moon.\relax }{figure.caption.134}{}}
\@writefile{lof}{\contentsline {figure}{\numberline {6.11}{\ignorespaces Finding acceleration induced due to the Moon.\relax }}{305}{figure.caption.135}\protected@file@percent }
\newlabel{fig-6-11}{{6.11}{305}{Finding acceleration induced due to the Moon.\relax }{figure.caption.135}{}}
\@writefile{lof}{\contentsline {figure}{\numberline {6.12}{\ignorespaces Finding acceleration induced due to the Moon.\relax }}{308}{figure.caption.136}\protected@file@percent }
\newlabel{fig-6-12}{{6.12}{308}{Finding acceleration induced due to the Moon.\relax }{figure.caption.136}{}}
\@writefile{toc}{\contentsline {chapter}{\numberline {7}Pressure}{315}{chapter.7}\protected@file@percent }
\@writefile{lof}{\addvspace {10\p@ }}
\@writefile{lot}{\addvspace {10\p@ }}
\@writefile{toc}{\contentsline {section}{Hydraulic Press}{315}{section*.137}\protected@file@percent }
\@writefile{lof}{\contentsline {figure}{\numberline {7.1}{\ignorespaces A hydraulic press.\relax }}{316}{figure.caption.138}\protected@file@percent }
\newlabel{fig-7-01}{{7.1}{316}{A hydraulic press.\relax }{figure.caption.138}{}}
\@writefile{toc}{\contentsline {section}{Hydrostatic Pressure}{318}{section*.139}\protected@file@percent }
\@writefile{lof}{\contentsline {figure}{\numberline {7.2}{\ignorespaces Hydrostatic pressure on a column of water.\relax }}{319}{figure.caption.140}\protected@file@percent }
\newlabel{fig-7-02}{{7.2}{319}{Hydrostatic pressure on a column of water.\relax }{figure.caption.140}{}}
\@writefile{lof}{\contentsline {figure}{\numberline {7.3}{\ignorespaces Are the forces at the bottom of the two vessels same?\relax }}{321}{figure.caption.141}\protected@file@percent }
\newlabel{fig-7-3}{{7.3}{321}{Are the forces at the bottom of the two vessels same?\relax }{figure.caption.141}{}}
\@writefile{toc}{\contentsline {section}{Atmospheric Pressure}{323}{section*.142}\protected@file@percent }
\@writefile{lof}{\contentsline {figure}{\numberline {7.4}{\ignorespaces A barometer.\relax }}{324}{figure.caption.143}\protected@file@percent }
\newlabel{fig-7-4}{{7.4}{324}{A barometer.\relax }{figure.caption.143}{}}
\@writefile{lof}{\contentsline {figure}{\numberline {7.5}{\ignorespaces A siphon used to transfer liquids.\relax }}{327}{figure.caption.144}\protected@file@percent }
\newlabel{fig-7-5}{{7.5}{327}{A siphon used to transfer liquids.\relax }{figure.caption.144}{}}
\@writefile{toc}{\contentsline {section}{How Atmospheric Pressure Was Discovered}{329}{section*.145}\protected@file@percent }
\@writefile{toc}{\contentsline {section}{Atmospheric Pressure and Weather}{332}{section*.146}\protected@file@percent }
\@writefile{lof}{\contentsline {figure}{\numberline {7.6}{\ignorespaces A map for weather forecasting showing isobars.\relax }}{333}{figure.caption.147}\protected@file@percent }
\newlabel{fig-7-6}{{7.6}{333}{A map for weather forecasting showing isobars.\relax }{figure.caption.147}{}}
\@writefile{toc}{\contentsline {section}{Change of Pressure with Altitude}{336}{section*.148}\protected@file@percent }
\@writefile{toc}{\contentsline {section}{Archimedes' Principle}{340}{section*.149}\protected@file@percent }
\@writefile{lof}{\contentsline {figure}{\numberline {7.7}{\ignorespaces Areometer for density measurement.\relax }}{342}{figure.caption.150}\protected@file@percent }
\newlabel{fig-7-07}{{7.7}{342}{Areometer for density measurement.\relax }{figure.caption.150}{}}
\@writefile{lof}{\contentsline {figure}{\numberline {7.8}{\ignorespaces Areometer for density measurement.\relax }}{346}{figure.caption.151}\protected@file@percent }
\newlabel{fig-7-08}{{7.8}{346}{Areometer for density measurement.\relax }{figure.caption.151}{}}
\@writefile{toc}{\contentsline {section}{Extremely Low Pressures. Vacuum}{347}{section*.152}\protected@file@percent }
\@writefile{toc}{\contentsline {section}{Pressures of Millions of Atmospheres}{350}{section*.153}\protected@file@percent }
\@writefile{lof}{\contentsline {figure}{\numberline {7.9}{\ignorespaces Apparatus for creating high pressures.\relax }}{351}{figure.caption.154}\protected@file@percent }
\newlabel{fig-7-9}{{7.9}{351}{Apparatus for creating high pressures.\relax }{figure.caption.154}{}}
